…
**Datos actuales** (actualizado: 2026-06-22):
- **Cobertura**: Sep 2007 - May 2026
- **Registros**: 11,925 observaciones
- **Bienes**: 53 artículos únicos (limpios y estandarizados)
- **Categorías**: 3 grupos oficiales (Alimentos, Usos del Hogar, Vestuario)
- **Costo actual**: C$ 21,373 (+0.6% vs mes anterior)

**Actualización automática**: Este repositorio se actualiza automáticamente cada semana (los lunes) mediante GitHub Actions, descargando los datos más recientes del sitio web oficial del INIDE. Cuando hay un mes nuevo, se recompila el dataset, se regeneran las figuras y se redespliega la aplicación Shiny.

## Vista de los datos


``` r
canasta_basica
#> # A tibble: 11,925 × 17
#>    yymm       year month url      row   good  medida cantidad precio total    id
#>    <glue>    <dbl> <fct> <chr>    <chr> <chr> <chr>     <dbl>  <dbl> <dbl> <dbl>
#>  1 CB2007Dic  2007 Dic   https:/… 1     Arroz libra        38   7.12  270.     4
#>  2 CB2007Dic  2007 Dic   https:/… 2     Frij… libra        34  14.4   491.     4
#>  3 CB2007Dic  2007 Dic   https:/… 3     Azúc… libra        30   4.97  149.     4
#>  4 CB2007Dic  2007 Dic   https:/… 4     Acei… litro         7  27.4   192.     4
#>  5 CB2007Dic  2007 Dic   https:/… 5     Post… libra         8  33.5   268.     4
#>  6 CB2007Dic  2007 Dic   https:/… 6     Post… libra         5  31.6   158.     4
#>  7 CB2007Dic  2007 Dic   https:/… 7     Carn… libra         8  18.3   147.     4
#>  8 CB2007Dic  2007 Dic   https:/… 8     Chul… libra         9  35.4   319.     4
#>  9 CB2007Dic  2007 Dic   https:/… 9     Leche litro        30  11.9   356.     4
#> 10 CB2007Dic  2007 Dic   https:/… 10    Huev… docena        7  26.1   183.     4
#> # ℹ 11,915 more rows
#> # ℹ 6 more variables: ym <date>, categoria <fct>, ipc <dbl>,
#> #   ipc_estimado <lgl>, precio_real <dbl>, total_real <dbl>
```
…
